<mxfile host="app.diagrams.net" modified="2022-07-10T15:04:40.447Z" agent="5.0 (Windows NT 10.0; Win64; x64) AppleWebKit/537.36 (KHTML, like Gecko) Chrome/103.0.0.0 Safari/537.36" etag="O-eGDHFuDPNyDwu4AWZh" version="20.0.4" type="gitlab">
  <diagram name="Page-1" id="e7e014a7-5840-1c2e-5031-d8a46d1fe8dd">
    <mxGraphModel dx="1298" dy="651" grid="1" gridSize="10" guides="1" tooltips="1" connect="1" arrows="1" fold="1" page="1" pageScale="1" pageWidth="1169" pageHeight="826" background="none" math="0" shadow="0">
      <root>
        <mxCell id="0" />
        <mxCell id="1" parent="0" />
        <mxCell id="2" value="observation" style="swimlane;whiteSpace=wrap" parent="1" vertex="1">
          <mxGeometry x="164.5" y="128" width="280" height="792" as="geometry" />
        </mxCell>
        <mxCell id="7" value="Fichier" style="" parent="2" vertex="1">
          <mxGeometry x="85" y="72" width="110" height="50" as="geometry" />
        </mxCell>
        <mxCell id="10" value="Fichier &#xa;d&#39;observations" style="" parent="2" vertex="1">
          <mxGeometry x="85" y="332" width="110" height="50" as="geometry" />
        </mxCell>
        <mxCell id="anjfPuZ4kpOVz7c7IWtN-48" value="parcours &#xa;des fichiers&#xa; du répertoire" style="edgeStyle=elbowEdgeStyle;elbow=horizontal;strokeColor=#FF0000;endArrow=open;endFill=1;rounded=0;entryX=0.25;entryY=0.5;entryPerimeter=0;exitX=0.002;exitY=0.559;exitDx=0;exitDy=0;exitPerimeter=0;" edge="1" parent="2" source="anjfPuZ4kpOVz7c7IWtN-41">
          <mxGeometry width="100" height="100" relative="1" as="geometry">
            <mxPoint x="295.5" y="202" as="sourcePoint" />
            <mxPoint x="195" y="101.25" as="targetPoint" />
            <Array as="points">
              <mxPoint x="246" y="162" />
            </Array>
          </mxGeometry>
        </mxCell>
        <mxCell id="anjfPuZ4kpOVz7c7IWtN-50" value="Fichier&#xa; d&#39;observations&#xa; valides ?" style="rhombus;fillColor=#ffffc0;strokeColor=#ff0000;fontSize=8;labelBackgroundColor=none;labelBorderColor=none;whiteSpace=wrap;rounded=0;sketch=0;shadow=0;" vertex="1" parent="2">
          <mxGeometry x="100" y="152" width="80" height="40" as="geometry" />
        </mxCell>
        <mxCell id="anjfPuZ4kpOVz7c7IWtN-51" value="" style="edgeStyle=elbowEdgeStyle;elbow=horizontal;verticalAlign=bottom;endArrow=open;endSize=8;strokeColor=#FF0000;endFill=1;rounded=0" edge="1" parent="2">
          <mxGeometry as="geometry">
            <mxPoint x="139.68" y="152" as="targetPoint" />
            <mxPoint x="139.68" y="122" as="sourcePoint" />
            <mxPoint x="-64" y="15" as="offset" />
          </mxGeometry>
        </mxCell>
        <mxCell id="anjfPuZ4kpOVz7c7IWtN-52" value="oui" style="edgeStyle=elbowEdgeStyle;elbow=horizontal;verticalAlign=bottom;endArrow=open;endSize=8;strokeColor=#FF0000;endFill=1;rounded=0;entryX=-0.009;entryY=0.477;entryDx=0;entryDy=0;entryPerimeter=0;" edge="1" parent="2" target="8">
          <mxGeometry as="geometry">
            <mxPoint x="139.92000000000007" y="222" as="targetPoint" />
            <mxPoint x="139.92000000000007" y="192" as="sourcePoint" />
            <mxPoint x="-32" y="23" as="offset" />
            <Array as="points">
              <mxPoint x="140" y="212" />
            </Array>
          </mxGeometry>
        </mxCell>
        <mxCell id="38" value="" style="ellipse;shape=endState;fillColor=#000000;strokeColor=#ff0000" parent="2" vertex="1">
          <mxGeometry x="25.5" y="157" width="30" height="30" as="geometry" />
        </mxCell>
        <mxCell id="anjfPuZ4kpOVz7c7IWtN-55" value="non" style="edgeStyle=elbowEdgeStyle;elbow=horizontal;verticalAlign=bottom;endArrow=open;endSize=8;strokeColor=#FF0000;endFill=1;rounded=0" edge="1" parent="2">
          <mxGeometry as="geometry">
            <mxPoint x="55.5" y="172" as="targetPoint" />
            <mxPoint x="100" y="171.74" as="sourcePoint" />
            <mxPoint x="8" as="offset" />
          </mxGeometry>
        </mxCell>
        <mxCell id="3" value="calculs" style="swimlane;whiteSpace=wrap" parent="1" vertex="1">
          <mxGeometry x="444.5" y="128" width="280" height="792" as="geometry" />
        </mxCell>
        <mxCell id="anjfPuZ4kpOVz7c7IWtN-41" value="dossier des fichiers&#xa; d&#39;observations" style="" vertex="1" parent="3">
          <mxGeometry x="15.5" y="132" width="110" height="50" as="geometry" />
        </mxCell>
        <mxCell id="15" value="dossier des fichiers&#xa; de navigation" style="" parent="3" vertex="1">
          <mxGeometry x="155.5" y="132" width="110" height="50" as="geometry" />
        </mxCell>
        <mxCell id="5" value="" style="ellipse;shape=startState;fillColor=#000000;strokeColor=#ff0000;" parent="3" vertex="1">
          <mxGeometry x="125.5" y="32" width="30" height="30" as="geometry" />
        </mxCell>
        <mxCell id="6" value="" style="edgeStyle=elbowEdgeStyle;elbow=horizontal;verticalAlign=bottom;endArrow=open;endSize=8;strokeColor=#FF0000;endFill=1;rounded=0" parent="3" source="5" edge="1">
          <mxGeometry x="125.5" y="32" as="geometry">
            <mxPoint x="140.5" y="92" as="targetPoint" />
          </mxGeometry>
        </mxCell>
        <mxCell id="anjfPuZ4kpOVz7c7IWtN-44" value="" style="shape=line;strokeWidth=6;strokeColor=#ff0000;rotation=0;" vertex="1" parent="3">
          <mxGeometry x="60" y="92" width="160" height="15" as="geometry" />
        </mxCell>
        <mxCell id="anjfPuZ4kpOVz7c7IWtN-45" value="" style="edgeStyle=elbowEdgeStyle;elbow=horizontal;verticalAlign=bottom;endArrow=open;endSize=8;strokeColor=#FF0000;endFill=1;rounded=0" edge="1" parent="3">
          <mxGeometry x="-389.26" y="-56" as="geometry">
            <mxPoint x="70.24000000000001" y="132" as="targetPoint" />
            <mxPoint x="70.24000000000001" y="102" as="sourcePoint" />
          </mxGeometry>
        </mxCell>
        <mxCell id="anjfPuZ4kpOVz7c7IWtN-46" value="" style="edgeStyle=elbowEdgeStyle;elbow=horizontal;verticalAlign=bottom;endArrow=open;endSize=8;strokeColor=#FF0000;endFill=1;rounded=0" edge="1" parent="3">
          <mxGeometry x="-249.26" y="-56" as="geometry">
            <mxPoint x="210.24" y="132" as="targetPoint" />
            <mxPoint x="210.24" y="102" as="sourcePoint" />
          </mxGeometry>
        </mxCell>
        <mxCell id="8" value="Liste des fichiers &#xa;d&#39;observations &#xa;valides" style="" parent="3" vertex="1">
          <mxGeometry x="15.5" y="222" width="110" height="50" as="geometry" />
        </mxCell>
        <mxCell id="anjfPuZ4kpOVz7c7IWtN-63" value="liste des fichiers &#xa;de navigation&#xa;filtrés" style="" vertex="1" parent="3">
          <mxGeometry x="155.5" y="222" width="110" height="50" as="geometry" />
        </mxCell>
        <mxCell id="anjfPuZ4kpOVz7c7IWtN-65" value="" style="shape=line;strokeWidth=6;strokeColor=#ff0000;rotation=0;" vertex="1" parent="3">
          <mxGeometry x="60.5" y="302" width="160" height="15" as="geometry" />
        </mxCell>
        <mxCell id="anjfPuZ4kpOVz7c7IWtN-67" value="" style="edgeStyle=elbowEdgeStyle;elbow=horizontal;verticalAlign=bottom;endArrow=open;endSize=8;strokeColor=#FF0000;endFill=1;rounded=0;exitX=0.486;exitY=0.996;exitDx=0;exitDy=0;exitPerimeter=0;entryX=0.927;entryY=0.494;entryDx=0;entryDy=0;entryPerimeter=0;" edge="1" parent="3" source="anjfPuZ4kpOVz7c7IWtN-63" target="anjfPuZ4kpOVz7c7IWtN-65">
          <mxGeometry x="-693.26" y="26" as="geometry">
            <mxPoint x="210.74" y="342" as="targetPoint" />
            <mxPoint x="210.74" y="312" as="sourcePoint" />
          </mxGeometry>
        </mxCell>
        <mxCell id="anjfPuZ4kpOVz7c7IWtN-68" value="" style="edgeStyle=elbowEdgeStyle;elbow=horizontal;verticalAlign=bottom;endArrow=open;endSize=8;strokeColor=#FF0000;endFill=1;rounded=0;exitX=0.486;exitY=0.996;exitDx=0;exitDy=0;exitPerimeter=0;entryX=0.927;entryY=0.494;entryDx=0;entryDy=0;entryPerimeter=0;" edge="1" parent="3">
          <mxGeometry x="-1271.06" y="-101.8" as="geometry">
            <mxPoint x="75.51999999999998" y="309.60999999999996" as="targetPoint" />
            <mxPoint x="75.65999999999985" y="271.99999999999994" as="sourcePoint" />
          </mxGeometry>
        </mxCell>
        <mxCell id="anjfPuZ4kpOVz7c7IWtN-69" value="Correspondance" style="edgeStyle=elbowEdgeStyle;elbow=horizontal;verticalAlign=bottom;endArrow=open;endSize=8;strokeColor=#FF0000;endFill=1;rounded=0;" edge="1" parent="3">
          <mxGeometry as="geometry">
            <mxPoint x="140.5" y="342" as="targetPoint" />
            <mxPoint x="140.5" y="312" as="sourcePoint" />
            <mxPoint x="45" y="5" as="offset" />
          </mxGeometry>
        </mxCell>
        <mxCell id="anjfPuZ4kpOVz7c7IWtN-71" value="Correspondance existe?" style="rhombus;fillColor=#ffffc0;strokeColor=#ff0000;fontSize=8;labelBackgroundColor=none;labelBorderColor=none;whiteSpace=wrap;rounded=0;sketch=0;shadow=0;" vertex="1" parent="3">
          <mxGeometry x="100.5" y="342" width="80" height="40" as="geometry" />
        </mxCell>
        <mxCell id="anjfPuZ4kpOVz7c7IWtN-72" value="oui" style="edgeStyle=elbowEdgeStyle;elbow=horizontal;verticalAlign=bottom;endArrow=open;endSize=8;strokeColor=#FF0000;endFill=1;rounded=0;" edge="1" parent="3">
          <mxGeometry as="geometry">
            <mxPoint x="140.5" y="412" as="targetPoint" />
            <mxPoint x="140.28999999999996" y="382" as="sourcePoint" />
            <mxPoint x="15" y="5" as="offset" />
          </mxGeometry>
        </mxCell>
        <mxCell id="anjfPuZ4kpOVz7c7IWtN-73" value="" style="ellipse;shape=endState;fillColor=#000000;strokeColor=#ff0000" vertex="1" parent="3">
          <mxGeometry x="26" y="347" width="30" height="30" as="geometry" />
        </mxCell>
        <mxCell id="anjfPuZ4kpOVz7c7IWtN-74" value="non" style="edgeStyle=elbowEdgeStyle;elbow=horizontal;verticalAlign=bottom;endArrow=open;endSize=8;strokeColor=#FF0000;endFill=1;rounded=0" edge="1" parent="3">
          <mxGeometry x="-164" y="62" as="geometry">
            <mxPoint x="56" y="362" as="targetPoint" />
            <mxPoint x="100.5" y="361.73999999999995" as="sourcePoint" />
            <mxPoint x="8" as="offset" />
          </mxGeometry>
        </mxCell>
        <mxCell id="anjfPuZ4kpOVz7c7IWtN-75" value="Fichiers&#xa;d&#39;observations&#xa;finaux" style="" vertex="1" parent="3">
          <mxGeometry x="15.5" y="452" width="110" height="50" as="geometry" />
        </mxCell>
        <mxCell id="anjfPuZ4kpOVz7c7IWtN-77" value="" style="shape=line;strokeWidth=6;strokeColor=#ff0000;rotation=0;" vertex="1" parent="3">
          <mxGeometry x="60.5" y="412" width="160" height="15" as="geometry" />
        </mxCell>
        <mxCell id="anjfPuZ4kpOVz7c7IWtN-78" value="" style="edgeStyle=elbowEdgeStyle;elbow=horizontal;verticalAlign=bottom;endArrow=open;endSize=8;strokeColor=#FF0000;endFill=1;rounded=0" edge="1" parent="3">
          <mxGeometry x="-833.76" y="136" as="geometry">
            <mxPoint x="70.24000000000001" y="452" as="targetPoint" />
            <mxPoint x="70.24000000000001" y="422" as="sourcePoint" />
          </mxGeometry>
        </mxCell>
        <mxCell id="anjfPuZ4kpOVz7c7IWtN-80" value="parcours &#xa;des fichiers" style="edgeStyle=elbowEdgeStyle;elbow=horizontal;strokeColor=#FF0000;endArrow=open;endFill=1;rounded=0;exitX=0.002;exitY=0.559;exitDx=0;exitDy=0;exitPerimeter=0;" edge="1" parent="3">
          <mxGeometry width="100" height="100" relative="1" as="geometry">
            <mxPoint x="15.499999999999773" y="480.70000000000005" as="sourcePoint" />
            <mxPoint x="-84.5" y="352" as="targetPoint" />
            <Array as="points">
              <mxPoint x="-44" y="412" />
            </Array>
          </mxGeometry>
        </mxCell>
        <mxCell id="anjfPuZ4kpOVz7c7IWtN-86" value="Lecture &#xa;avec gnsstoolbox" style="edgeStyle=elbowEdgeStyle;elbow=horizontal;verticalAlign=bottom;endArrow=open;endSize=8;strokeColor=#FF0000;endFill=1;rounded=0" edge="1" parent="3">
          <mxGeometry x="-449.63" y="-163" as="geometry">
            <mxPoint x="140.37" y="627" as="targetPoint" />
            <mxPoint x="140.41999999999996" y="577" as="sourcePoint" />
            <mxPoint x="50" y="15" as="offset" />
          </mxGeometry>
        </mxCell>
        <mxCell id="anjfPuZ4kpOVz7c7IWtN-87" value="Fichiers&#xa;de navigation&#xa;correspondant" style="" vertex="1" parent="3">
          <mxGeometry x="85.5" y="627" width="110" height="50" as="geometry" />
        </mxCell>
        <mxCell id="anjfPuZ4kpOVz7c7IWtN-82" value="Fichier&#xa;d&#39;observations&#xa;et informations" style="" vertex="1" parent="3">
          <mxGeometry x="85" y="527" width="110" height="50" as="geometry" />
        </mxCell>
        <mxCell id="anjfPuZ4kpOVz7c7IWtN-89" value="Création d&#39;un fichier&#xa;résultat (format .tta) " style="" vertex="1" parent="3">
          <mxGeometry x="85.5" y="722" width="110" height="50" as="geometry" />
        </mxCell>
        <mxCell id="anjfPuZ4kpOVz7c7IWtN-90" value="" style="ellipse;shape=endState;fillColor=#000000;strokeColor=#ff0000" vertex="1" parent="3">
          <mxGeometry x="11" y="732" width="30" height="30" as="geometry" />
        </mxCell>
        <mxCell id="anjfPuZ4kpOVz7c7IWtN-91" value="non" style="edgeStyle=elbowEdgeStyle;elbow=horizontal;verticalAlign=bottom;endArrow=open;endSize=8;strokeColor=#FF0000;endFill=1;rounded=0" edge="1" parent="3">
          <mxGeometry x="-623.5" y="319" as="geometry">
            <mxPoint x="41" y="747" as="targetPoint" />
            <mxPoint x="85.5" y="746.74" as="sourcePoint" />
            <mxPoint x="8" as="offset" />
          </mxGeometry>
        </mxCell>
        <mxCell id="4" value="navigation" style="swimlane;whiteSpace=wrap" parent="1" vertex="1">
          <mxGeometry x="724.5" y="128" width="290" height="792" as="geometry" />
        </mxCell>
        <mxCell id="16" value="liste des fichiers &#xa;de navigation&#xa;valides" style="" parent="4" vertex="1">
          <mxGeometry x="90" y="182" width="110" height="50" as="geometry" />
        </mxCell>
        <mxCell id="41" value="Filtrage" style="edgeStyle=elbowEdgeStyle;elbow=horizontal;strokeColor=#FF0000;endArrow=open;endFill=1;rounded=0;entryX=1.008;entryY=0.498;entryDx=0;entryDy=0;entryPerimeter=0;" parent="4" target="anjfPuZ4kpOVz7c7IWtN-63" edge="1">
          <mxGeometry x="-0.0243" y="15" width="100" height="100" relative="1" as="geometry">
            <mxPoint x="140" y="232" as="sourcePoint" />
            <mxPoint x="30" y="352" as="targetPoint" />
            <Array as="points">
              <mxPoint x="140" y="242" />
              <mxPoint x="150.5" y="332" />
            </Array>
            <mxPoint as="offset" />
          </mxGeometry>
        </mxCell>
        <mxCell id="anjfPuZ4kpOVz7c7IWtN-58" value="Liste des fichiers &#xa;dans le répertoire" style="" vertex="1" parent="4">
          <mxGeometry x="90" y="32" width="110" height="50" as="geometry" />
        </mxCell>
        <mxCell id="anjfPuZ4kpOVz7c7IWtN-60" value="" style="edgeStyle=elbowEdgeStyle;elbow=horizontal;verticalAlign=bottom;endArrow=open;endSize=8;strokeColor=#FF0000;endFill=1;rounded=0" edge="1" parent="4">
          <mxGeometry x="-314.84" y="-76" as="geometry">
            <mxPoint x="144.66000000000008" y="112" as="targetPoint" />
            <mxPoint x="144.66000000000008" y="82" as="sourcePoint" />
          </mxGeometry>
        </mxCell>
        <mxCell id="anjfPuZ4kpOVz7c7IWtN-61" value="Fichier&#xa; de navigation&#xa; valides ?" style="rhombus;fillColor=#ffffc0;strokeColor=#ff0000;fontSize=8;labelBackgroundColor=none;labelBorderColor=none;whiteSpace=wrap;rounded=0;sketch=0;shadow=0;" vertex="1" parent="4">
          <mxGeometry x="105" y="112" width="80" height="40" as="geometry" />
        </mxCell>
        <mxCell id="anjfPuZ4kpOVz7c7IWtN-62" value="" style="edgeStyle=elbowEdgeStyle;elbow=horizontal;verticalAlign=bottom;endArrow=open;endSize=8;strokeColor=#FF0000;endFill=1;rounded=0" edge="1" parent="4">
          <mxGeometry x="-1044.65" y="-134" as="geometry">
            <mxPoint x="144.85000000000014" y="182" as="targetPoint" />
            <mxPoint x="144.85000000000014" y="152" as="sourcePoint" />
          </mxGeometry>
        </mxCell>
        <mxCell id="anjfPuZ4kpOVz7c7IWtN-83" value="Fichiers&#xa;de navigation&#xa;finaux" style="" vertex="1" parent="4">
          <mxGeometry x="90" y="347" width="110" height="50" as="geometry" />
        </mxCell>
        <mxCell id="22" value="" style="edgeStyle=elbowEdgeStyle;elbow=horizontal;align=left;verticalAlign=bottom;endArrow=open;endSize=8;strokeColor=#FF0000;endFill=1;rounded=0;entryX=-0.025;entryY=0.516;entryPerimeter=0;entryDx=0;entryDy=0;exitX=1;exitY=0.532;exitDx=0;exitDy=0;exitPerimeter=0;" parent="1" source="15" target="anjfPuZ4kpOVz7c7IWtN-58" edge="1">
          <mxGeometry x="-0.5556" y="15" relative="1" as="geometry">
            <mxPoint x="955.5" y="280" as="targetPoint" />
            <Array as="points">
              <mxPoint x="780" y="300" />
              <mxPoint x="985.5" y="310" />
            </Array>
            <mxPoint x="750" y="330" as="sourcePoint" />
            <mxPoint as="offset" />
          </mxGeometry>
        </mxCell>
        <mxCell id="anjfPuZ4kpOVz7c7IWtN-85" value="" style="edgeStyle=elbowEdgeStyle;elbow=horizontal;strokeColor=#FF0000;endArrow=open;endFill=1;rounded=0;" edge="1" parent="1" source="anjfPuZ4kpOVz7c7IWtN-77">
          <mxGeometry width="100" height="100" relative="1" as="geometry">
            <mxPoint x="650" y="580" as="sourcePoint" />
            <mxPoint x="820" y="500" as="targetPoint" />
            <Array as="points">
              <mxPoint x="775.5" y="555.65" />
            </Array>
          </mxGeometry>
        </mxCell>
        <mxCell id="anjfPuZ4kpOVz7c7IWtN-81" value="lecture et extraction&#xa;des informations" style="edgeStyle=elbowEdgeStyle;elbow=horizontal;verticalAlign=bottom;endArrow=open;endSize=8;strokeColor=#FF0000;endFill=1;rounded=0;entryX=-0.005;entryY=0.527;entryDx=0;entryDy=0;entryPerimeter=0;exitX=0.545;exitY=1.019;exitDx=0;exitDy=0;exitPerimeter=0;" edge="1" parent="1" source="10" target="anjfPuZ4kpOVz7c7IWtN-82">
          <mxGeometry x="164.5" y="93" as="geometry">
            <mxPoint x="570" y="685" as="targetPoint" />
            <mxPoint x="310.00000000000006" y="475" as="sourcePoint" />
            <mxPoint x="-159" y="17" as="offset" />
            <Array as="points">
              <mxPoint x="310.08" y="495" />
            </Array>
          </mxGeometry>
        </mxCell>
        <mxCell id="anjfPuZ4kpOVz7c7IWtN-88" value=" calculs&#xa;des coordonnées" style="edgeStyle=elbowEdgeStyle;elbow=horizontal;verticalAlign=bottom;endArrow=open;endSize=8;strokeColor=#FF0000;endFill=1;rounded=0" edge="1" parent="1">
          <mxGeometry as="geometry">
            <mxPoint x="583.37" y="855" as="targetPoint" />
            <mxPoint x="583.42" y="805" as="sourcePoint" />
            <mxPoint x="67" y="20" as="offset" />
          </mxGeometry>
        </mxCell>
        <mxCell id="anjfPuZ4kpOVz7c7IWtN-92" value="Lecture  et &#xa;extraction des&#xa;informations" style="edgeStyle=elbowEdgeStyle;elbow=horizontal;strokeColor=#FF0000;endArrow=open;endFill=1;rounded=0;entryX=1;entryY=0.483;entryDx=0;entryDy=0;entryPerimeter=0;exitX=0.466;exitY=1.032;exitDx=0;exitDy=0;exitPerimeter=0;" edge="1" parent="1" source="anjfPuZ4kpOVz7c7IWtN-83" target="anjfPuZ4kpOVz7c7IWtN-87">
          <mxGeometry x="0.331" y="-29" width="100" height="100" relative="1" as="geometry">
            <mxPoint x="793.62" y="770" as="sourcePoint" />
            <mxPoint x="639.9999999999997" y="784.9000000000001" as="targetPoint" />
            <Array as="points">
              <mxPoint x="865.5" y="540" />
              <mxPoint x="890.5" y="660" />
              <mxPoint x="804.12" y="870" />
            </Array>
            <mxPoint as="offset" />
          </mxGeometry>
        </mxCell>
      </root>
    </mxGraphModel>
  </diagram>
</mxfile>
